{
  "actions": [],
  "allow_rename": 1,
  "creation": "2023-10-17 20:18:29.551344",
  "doctype": "DocType",
  "editable_grid": 1,
  "engine": "InnoDB",
  "field_order": ["link_doctype", "link_name"],
  "fields": [
    {
      "fieldname": "link_doctype",
      "fieldtype": "Link",
      "in_list_view": 1,
      "label": "Link Document Type",
      "options": "DocType",
      "reqd": 1
    },
    {
      "fieldname": "link_name",
      "fieldtype": "Dynamic Link",
      "in_list_view": 1,
      "label": "Link Name",
      "options": "link_doctype",
      "reqd": 1
    }
  ],
  "index_web_pages_for_search": 1,
  "istable": 1,
  "links": [],
  "modified": "2023-10-17 20:18:29.551344",
  "modified_by": "Administrator",
  "module": "Frappe Utils",
  "name": "Permission Rule Link",
  "owner": "Administrator",
  "permissions": [],
  "sort_field": "modified",
  "sort_order": "DESC",
  "states": []
}
