{
  "actions": [],
  "allow_rename": 1,
  "autoname": "field:application_name",
  "creation": "2024-05-23 12:22:25.746052",
  "doctype": "DocType",
  "engine": "InnoDB",
  "field_order": [
    "details_section",
    "application_name",
    "icon",
    "column_break_drzv",
    "url",
    "description"
  ],
  "fields": [
    {
      "fieldname": "details_section",
      "fieldtype": "Section Break",
      "label": "Details"
    },
    {
      "fieldname": "application_name",
      "fieldtype": "Data",
      "in_list_view": 1,
      "label": "Application Name",
      "length": 50,
      "reqd": 1,
      "unique": 1
    },
    {
      "fieldname": "icon",
      "fieldtype": "Icon",
      "label": "Icon"
    },
    {
      "fieldname": "column_break_drzv",
      "fieldtype": "Column Break"
    },
    {
      "fieldname": "url",
      "fieldtype": "Data",
      "in_list_view": 1,
      "label": "URL",
      "length": 150,
      "reqd": 1
    },
    {
      "fieldname": "description",
      "fieldtype": "Small Text",
      "label": "Description"
    }
  ],
  "index_web_pages_for_search": 1,
  "links": [],
  "modified": "2024-05-23 12:25:21.195031",
  "modified_by": "Administrator",
  "module": "Frappe Utils",
  "name": "Unified Application Access",
  "naming_rule": "By fieldname",
  "owner": "Administrator",
  "permissions": [
    {
      "create": 1,
      "delete": 1,
      "email": 1,
      "export": 1,
      "print": 1,
      "read": 1,
      "report": 1,
      "role": "System Manager",
      "share": 1,
      "write": 1
    }
  ],
  "sort_field": "modified",
  "sort_order": "DESC",
  "states": []
}
